+--------+----------+----------+------+---------+------------+
| Domain | Method   | URI      | Name | Action  | Middleware |
+--------+----------+----------+------+---------+------------+
|        | GET|HEAD | /        |      | Closure | web        |
|        | GET|HEAD | api/user |      | Closure | api        |
|        |          |          |      |         | auth:api   |
+--------+----------+----------+------+---------+------------+
